Day 1 Part 3: Random Walks
…
Analysis of a Single Random Walk

Analyze a single random walk with a lag variable. Here, we analyze the properties of a single random walk by estimating a regression with a lagged variable. This helps us understand if past values of the walk can predict future values, which is key to determining whether the series is truly a random walk.

random_walk_1 <- 
  random_walks %>% 
  filter(random_walk_no == 1) %>% 
  mutate(random_walk_lag = lag(random_walk)) %>% 
  remove_missing() %>% 
  print()

Warning: Removed 1 row containing missing values or values outside the scale
range.

# A tibble: 99 × 5
   random_walk_no  step       e random_walk random_walk_lag
   <fct>          <int>   <dbl>       <dbl>           <dbl>
 1 1                  2  0.313        0.298         -0.0152
 2 1                  3 -1.32        -1.03           0.298 
 3 1                  4 -0.428       -1.45          -1.03  
 4 1                  5 -0.0534      -1.51          -1.45  
 5 1                  6 -0.332       -1.84          -1.51  
 6 1                  7 -1.40        -3.24          -1.84  
 7 1                  8  1.89        -1.35          -3.24  
 8 1                  9 -0.575       -1.92          -1.35  
 9 1                 10 -0.327       -2.25          -1.92  
10 1                 11  1.92        -0.333         -2.25  
# ℹ 89 more rows
…
Warning: Removed 97030 rows containing missing values or values outside the
scale range.

random_walks

# A tibble: 30 × 4
   random_walk_no data              est       coef
   <fct>          <list>            <list>   <dbl>
 1 1              <tibble [99 × 4]> <fixest> 1.01 
 2 2              <tibble [99 × 4]> <fixest> 0.974
 3 3              <tibble [99 × 4]> <fixest> 1.00 
 4 4              <tibble [99 × 4]> <fixest> 1.01 
 5 5              <tibble [99 × 4]> <fixest> 0.951
 6 6              <tibble [99 × 4]> <fixest> 0.934
 7 7              <tibble [99 × 4]> <fixest> 0.996
 8 8              <tibble [99 × 4]> <fixest> 0.989
 9 9              <tibble [99 × 4]> <fixest> 0.988
10 10             <tibble [99 × 4]> <fixest> 0.995
# ℹ 20 more rows
…
