Day 1 Part 3: Random Walks
…
Analysis of a Single Random Walk

Analyze a single random walk with a lag variable. Here, we analyze the properties of a single random walk by estimating a regression with a lagged variable. This helps us understand if past values of the walk can predict future values, which is key to determining whether the series is truly a random walk.

random_walk_1 <- 
  random_walks %>% 
  filter(random_walk_no == 1) %>% 
  mutate(random_walk_lag = lag(random_walk)) %>% 
  remove_missing() %>% 
  print()

Warning: Removed 1 row containing missing values or values outside the scale
range.

# A tibble: 99 × 5
   random_walk_no  step      e random_walk random_walk_lag
            <int> <int>  <dbl>       <dbl>           <dbl>
 1              1     2  0.262       0.180         -0.0818
 2              1     3 -0.669      -0.489          0.180 
 3              1     4 -0.739      -1.23          -0.489 
 4              1     5  0.934      -0.294         -1.23  
 5              1     6 -0.238      -0.532         -0.294 
 6              1     7  1.08        0.546         -0.532 
 7              1     8 -0.308       0.238          0.546 
 8              1     9  0.389       0.628          0.238 
 9              1    10  0.796       1.42           0.628 
10              1    11 -1.91       -0.483          1.42  
# ℹ 89 more rows
…
Warning: Removed 1000 rows containing missing values or values outside the
scale range.

random_walks

# A tibble: 1,000 × 4
   random_walk_no data              est       coef
            <int> <list>            <list>   <dbl>
 1              1 <tibble [99 × 4]> <fixest> 0.932
 2              2 <tibble [99 × 4]> <fixest> 0.992
 3              3 <tibble [99 × 4]> <fixest> 0.985
 4              4 <tibble [99 × 4]> <fixest> 1.01 
 5              5 <tibble [99 × 4]> <fixest> 0.986
 6              6 <tibble [99 × 4]> <fixest> 0.995
 7              7 <tibble [99 × 4]> <fixest> 0.933
 8              8 <tibble [99 × 4]> <fixest> 1.01 
 9              9 <tibble [99 × 4]> <fixest> 0.909
10             10 <tibble [99 × 4]> <fixest> 0.965
# ℹ 990 more rows
…
