Day 2 Part 1: Fitting Volatility Models
…
We calculate the daily returns of the S&P 500 index from the adjusted closing prices.

sp500_returns <-
  sp500_download %>%
  select(symbol, date, price = adjusted_close) %>%
  mutate(return = price / lag(price) - 1) %>%
  remove_missing() %>%
  select(-price) %>%
  mutate(date = row_number()) %>%
  print()

Warning: Removed 1 row containing missing values or values outside the scale
range.

# A tibble: 2,515 × 3
   symbol  date   return
   <chr>  <int>    <dbl>
 1 ^GSPC      1 -0.00150
 2 ^GSPC      2  0.00197
 3 ^GSPC      3  0.00524
 4 ^GSPC      4  0.00286
 5 ^GSPC      5 -0.00115
 6 ^GSPC      6  0.00281
 7 ^GSPC      7 -0.00254
 8 ^GSPC      8 -0.00683
 9 ^GSPC      9  0.00638
10 ^GSPC     10  0.00376
# ℹ 2,505 more rows
…
We extract standardized residuals to check for remaining autocorrelation or patterns.

residuals <-
  imap_dfr(
    fit_results,
    ~ tibble(
      model = .y,
      date = sp500_returns$date,
      residuals = residuals(.x, standardize = TRUE) %>% as.numeric()
    )
  )
residuals

# A tibble: 10,060 × 3
   model   date residuals
   <chr>  <int>     <dbl>
 1 sGARCH     1   -0.215 
 2 sGARCH     2    0.0943
 3 sGARCH     3    0.455 
 4 sGARCH     4    0.206 
 5 sGARCH     5   -0.250 
 6 sGARCH     6    0.233 
 7 sGARCH     7   -0.481 
 8 sGARCH     8   -1.08  
 9 sGARCH     9    0.773 
10 sGARCH    10    0.396 
# ℹ 10,050 more rows
…
