Day 2 Part 1: Simulating Volatility Processes
…
    function(model_name) {
      spec <- volatility_specs[[model_name]]
      simulation <- ugarchpath(spec = spec, n.sim = n_sim)
      tibble(
        time = 1:n_sim,
        series = as.numeric(simulation@path$seriesSim),
        sigma = as.numeric(simulation@path$sigmaSim),
        model = model_name
      )
    }
  ) %>%
  list_rbind()
sim_data

# A tibble: 4,000 × 4
    time  series sigma model  
   <int>   <dbl> <dbl> <chr>  
 1     1  0.0549 0.387 s_garch
 2     2  0.144  0.341 s_garch
 3     3 -0.319  0.341 s_garch
 4     4 -1.08   0.509 s_garch
 5     5 -1.74   0.760 s_garch
 6     6 -0.459  0.765 s_garch
 7     7 -0.120  1.00  s_garch
 8     8  0.651  0.507 s_garch
 9     9  0.363  0.720 s_garch
10    10 -0.197  0.436 s_garch
# ℹ 3,990 more rows
…
